BraveRatsThesis
…
# By person counts and props

human_clusters %>% group_by(cluster, p1_name) %>% 
  summarize(n = n()) %>% 
  group_by(p1_name) %>% 
  mutate(prop_for_player = n/sum(n)) %>% 
  arrange(desc(n))

`summarise()` has grouped output by 'cluster'. You can override using the
`.groups` argument.

# A tibble: 93 × 4
# Groups:   p1_name [11]
   cluster p1_name        n prop_for_player
     <int> <chr>      <int>           <dbl>
 1      NA "William "   264          0.444 
 2      11 "William "   168          0.283 
 3      NA "Sean"        72          0.429 
 4      NA "Michael"     66          0.482 
 5      11 "Sean"        51          0.304 
 6      NA "Kiran"       45          0.372 
 7      11 "Kiran"       38          0.314 
 8      11 "Michael"     36          0.263 
 9       6 "William "    35          0.0589
10      NA "Daniel"      30          0.484 
# … with 83 more rows
…
prob_buckets_by_card <- played_vs_optimal %>% 
  mutate(prob_bucket = if_else(optimal_prob == 0 | optimal_prob == 1, optimal_prob, round(optimal_prob*9)/9)) %>% 
  group_by(prob_bucket, this_card) %>% 
  summarise(n_played = sum(this_card_played),
            n_opportunities = n(),
            prop_played = mean(this_card_played),
            avg_prop_in_bucket = mean(optimal_prob)) 

`summarise()` has grouped output by 'prob_bucket'. You can override using the
`.groups` argument.

prob_buckets_by_card %>% 
  arrange(this_card)

# A tibble: 68 × 6
# Groups:   prob_bucket [10]
   prob_bucket this_card n_played n_opportunities prop_played avg_prop_in_bucket
         <dbl> <chr>        <dbl>           <int>       <dbl>              <dbl>
 1       0     0               53             533      0.0994           0.000545
 2       0.111 0                1              18      0.0556           0.116   
 3       0.222 0                0               5      0                0.207   
 4       0.333 0                0               6      0                0.317   
 5       0.444 0                0               9      0                0.455   
 6       0.556 0                1               3      0.333            0.544   
 7       0.667 0                1               4      0.25             0.675   
 8       0.778 0                0               1      0                0.757   
 9       1     0               35              78      0.449            0.999   
10       0     1               28             537      0.0521           0.00106 
# … with 58 more rows
…
